<svg width="24" height="24" viewBox="0 0 24 24" fill="none" xmlns="http://www.w3.org/2000/svg">
<path fill-rule="evenodd" clip-rule="evenodd" d="M14.7071 7.29311C15.0976 7.68363 15.0976 8.3168 14.7071 8.70732L11.4142 12.0002L14.7071 15.2931C15.0976 15.6836 15.0976 16.3168 14.7071 16.7073C14.3166 17.0978 13.6834 17.0978 13.2929 16.7073L9.29289 12.7073C8.90237 12.3168 8.90237 11.6836 9.29289 11.2931L13.2929 7.29311C13.6834 6.90258 14.3166 6.90258 14.7071 7.29311Z" fill="#41337A"/>
</svg>
