<svg width="24" height="24" viewBox="0 0 24 24" fill="none" xmlns="http://www.w3.org/2000/svg">
<path fill-rule="evenodd" clip-rule="evenodd" d="M6 5C5.44772 5 5 5.44772 5 6V19C5 19.5523 4.55228 20 4 20C3.44772 20 3 19.5523 3 19V6C3 4.34315 4.34315 3 6 3H12C13.6569 3 15 4.34315 15 6V9.625C15 10.1773 14.5523 10.625 14 10.625C13.4477 10.625 13 10.1773 13 9.625V6C13 5.44772 12.5523 5 12 5H6ZM14 16.5C14.5523 16.5 15 16.9477 15 17.5V19C15 19.5523 14.5523 20 14 20C13.4477 20 13 19.5523 13 19V17.5C13 16.9477 13.4477 16.5 14 16.5Z" fill="#41337A"/>
<path fill-rule="evenodd" clip-rule="evenodd" d="M16.2929 9.29289C16.6834 8.90237 17.3166 8.90237 17.7071 9.29289L21.9142 13.5L17.7071 17.7071C17.3166 18.0976 16.6834 18.0976 16.2929 17.7071C15.9024 17.3166 15.9024 16.6834 16.2929 16.2929L18.0858 14.5H8C7.44772 14.5 7 14.0523 7 13.5C7 12.9477 7.44772 12.5 8 12.5H18.0858L16.2929 10.7071C15.9024 10.3166 15.9024 9.68342 16.2929 9.29289Z" fill="#41337A"/>
</svg>
