<svg width="24" height="24" viewBox="0 0 24 24" fill="none" xmlns="http://www.w3.org/2000/svg">
<rect x="5" y="6" width="14" height="14" rx="5" stroke="#41337A" stroke-width="2"/>
<rect x="8" y="9" width="8" height="8" rx="4" stroke="#41337A" stroke-width="2"/>
<rect width="3" height="3" rx="1.5" transform="matrix(-1 0 0 1 13.5 11.5)" fill="#41337A"/>
<path d="M10 6L9 3M12.5 6L12 4.5M14 6L15 3" stroke="#41337A" stroke-width="1.5" stroke-linecap="round"/>
</svg>
