<svg width="24" height="24" viewBox="0 0 24 24" fill="none" xmlns="http://www.w3.org/2000/svg">
<path fill-rule="evenodd" clip-rule="evenodd" d="M15.5858 4C16.3668 3.21895 17.6332 3.21895 18.4142 4L19.0127 4.5985C19.7128 5.29859 20.1284 6.23344 20.179 7.22222L20.1999 7.62962C20.569 14.8324 14.5463 20.7313 7.35274 20.2127L7.16449 20.1991C6.20553 20.13 5.30355 19.7177 4.6237 19.0379L4.00001 18.4142C3.21896 17.6332 3.21896 16.3668 4.00001 15.5858L6.47488 13.1109C7.25593 12.3299 8.52226 12.3299 9.30331 13.1109L10.1568 13.9644C12.3948 14.4067 14.4072 12.485 14.0488 10.2154L14.0231 10.0525L13.1924 9.22182C12.4113 8.44077 12.4113 7.17444 13.1924 6.39339L15.5858 4ZM17.5985 6.01272L17 5.41421L14.6066 7.8076L15.4961 8.69713C15.7568 8.95779 15.9282 9.29434 15.9857 9.65847L16.0244 9.90348C16.6069 13.5931 13.2899 16.7104 9.6435 15.9001C9.32489 15.8293 9.03308 15.6691 8.8023 15.4383L7.8891 14.5251L5.41422 17L6.03791 17.6237C6.37784 17.9636 6.82883 18.1697 7.30831 18.2043L7.49655 18.2179C13.4912 18.6501 18.5101 13.7343 18.2025 7.73197L18.1817 7.32457C18.1563 6.83019 17.9485 6.36276 17.5985 6.01272Z" fill="#41337A"/>
</svg>
