<svg width="24" height="24" viewBox="0 0 24 24" fill="none" xmlns="http://www.w3.org/2000/svg">
<path fill-rule="evenodd" clip-rule="evenodd" d="M11.2929 2.29289C11.6834 1.90237 12.3166 1.90237 12.7071 2.29289L20.7071 10.2929C20.8946 10.4804 21 10.7348 21 11V21.1616C21 21.7139 20.5523 22.1616 20 22.1616H4C3.44772 22.1616 3 21.7139 3 21.1616V11C3 10.7348 3.10536 10.4804 3.29289 10.2929L11.2929 2.29289ZM5 11.4142V20.1616H19V11.4142L12 4.41421L5 11.4142Z" fill="#41337A"/>
<path d="M9.5 15C9.5 14.4477 9.94772 14 10.5 14H13.5C14.0523 14 14.5 14.4477 14.5 15V21C14.5 21.5523 14.0523 22 13.5 22H10.5C9.94772 22 9.5 21.5523 9.5 21V15Z" fill="#41337A"/>
</svg>
